…
``` r

recon <- get_enrollment(
  level           = "superior",
  year            = c(2000, 2008),
  network         = "total",
  modality        = "total",
  indicator       = "count",
  include_derived = TRUE
)

recon[recon$is_derived, c("year", "source", "value")]
#> # A tibble: 23 × 3
#>     year source                                      value
#>    <int> <chr>                                       <dbl>
#>  1  2000 durham_2005+inep_sinopse_censup           2695927
#>  2  2000 inep_sinopse_censup+inep_sinopse_censup   2695927
#>  3  2000 kang_paese_felix_2021+inep_sinopse_censup 2695927
#>  4  2000 maduro_junior_2007+inep_sinopse_censup    2695927
#>  5  2001 durham_2005+inep_sinopse_censup           3045113
#>  6  2001 inep_sinopse_censup+inep_sinopse_censup   3036113
#>  7  2001 inep_sinopse_censup+inep_sinopse_censup   3036113
#>  8  2001 kang_paese_felix_2021+inep_sinopse_censup 3036113
#>  9  2001 maduro_junior_2007+inep_sinopse_censup    3036113
#> 10  2003 inep_sinopse_censup+inep_sinopse_censup   3936933
#> # ℹ 13 more rows
```
…
