…
## Value

A tibble following the canonical schema in `inst/dict/schema.yaml`.
Optional columns (`institution_type`, `modality`, `is_derived`) are
present whenever any of the loaded datasets carries them; for rows
coming from datasets without that column the value defaults to `"total"`
(or `FALSE` for `is_derived`).

## Examples

``` r
# National series, ensino fundamental, all years
get_enrollment(level = "fundamental", geo_level = "BR")
#> # A tibble: 156 × 16
#>     year geo_level geo_code geo_name level     network institution_type modality
#>    <int> <chr>     <chr>    <chr>    <chr>     <chr>   <chr>            <chr>   
#>  1  1933 BR        BR       Brasil   fundamen… total   total            total   
#>  2  1934 BR        BR       Brasil   fundamen… total   total            total   
#>  3  1935 BR        BR       Brasil   fundamen… total   total            total   
#>  4  1936 BR        BR       Brasil   fundamen… total   total            total   
#>  5  1937 BR        BR       Brasil   fundamen… total   total            total   
#>  6  1938 BR        BR       Brasil   fundamen… total   total            total   
#>  7  1939 BR        BR       Brasil   fundamen… total   total            total   
#>  8  1940 BR        BR       Brasil   fundamen… total   total            total   
#>  9  1941 BR        BR       Brasil   fundamen… total   total            total   
#> 10  1942 BR        BR       Brasil   fundamen… total   total            total   
#> # ℹ 146 more rows
#> # ℹ 8 more variables: dim_race <chr>, age_group <chr>, indicator <chr>,
#> #   value <dbl>, unit <chr>, source <chr>, source_note <chr>, is_derived <lgl>

# Tertiary enrollment, all sources, compare them
get_enrollment(level = "superior", network = "total", modality = "total")
#> # A tibble: 370 × 16
#>     year geo_level geo_code geo_name level    network institution_type modality
#>    <int> <chr>     <chr>    <chr>    <chr>    <chr>   <chr>            <chr>   
#>  1  1940 BR        BR       Brasil   superior total   total            total   
#>  2  1941 BR        BR       Brasil   superior total   total            total   
#>  3  1942 BR        BR       Brasil   superior total   total            total   
#>  4  1943 BR        BR       Brasil   superior total   total            total   
#>  5  1944 BR        BR       Brasil   superior total   total            total   
#>  6  1945 BR        BR       Brasil   superior total   total            total   
#>  7  1946 BR        BR       Brasil   superior total   total            total   
#>  8  1947 BR        BR       Brasil   superior total   total            total   
#>  9  1948 BR        BR       Brasil   superior total   total            total   
#> 10  1949 BR        BR       Brasil   superior total   total            total   
#> # ℹ 360 more rows
#> # ℹ 8 more variables: dim_race <chr>, age_group <chr>, indicator <chr>,
#> #   value <dbl>, unit <chr>, source <chr>, source_note <chr>, is_derived <lgl>

# Tertiary private particular only, post-2000
get_enrollment(level = "superior", network = "privada_particular",
               year = c(2000, 2024))
#> # A tibble: 50 × 16
#>     year geo_level geo_code geo_name level    network  institution_type modality
#>    <int> <chr>     <chr>    <chr>    <chr>    <chr>    <chr>            <chr>   
#>  1  2000 BR        BR       Brasil   superior privada… faculty_school_… presenc…
#>  2  2000 BR        BR       Brasil   superior privada… integrated_facu… presenc…
#>  3  2000 BR        BR       Brasil   superior privada… total            presenc…
#>  4  2000 BR        BR       Brasil   superior privada… university       presenc…
#>  5  2000 BR        BR       Brasil   superior privada… university_cent… presenc…
#>  6  2001 BR        BR       Brasil   superior privada… faculty_school_… presenc…
#>  7  2001 BR        BR       Brasil   superior privada… integrated_facu… presenc…
#>  8  2001 BR        BR       Brasil   superior privada… technology_cent… presenc…
#>  9  2001 BR        BR       Brasil   superior privada… total            presenc…
#> 10  2001 BR        BR       Brasil   superior privada… total            presenc…
#> # ℹ 40 more rows
#> # ℹ 8 more variables: dim_race <chr>, age_group <chr>, indicator <chr>,
#> #   value <dbl>, unit <chr>, source <chr>, source_note <chr>, is_derived <lgl>

# Compare with derived rows included
get_enrollment(level = "superior", network = "total",
               year = c(2000, 2008), include_derived = TRUE)
#> # A tibble: 113 × 16
#>     year geo_level geo_code geo_name level    network institution_type modality
#>    <int> <chr>     <chr>    <chr>    <chr>    <chr>   <chr>            <chr>   
#>  1  2000 BR        BR       Brasil   superior total   total            total   
#>  2  2001 BR        BR       Brasil   superior total   total            total   
#>  3  2002 BR        BR       Brasil   superior total   total            total   
#>  4  2003 BR        BR       Brasil   superior total   total            total   
#>  5  2004 BR        BR       Brasil   superior total   total            total   
#>  6  2005 BR        BR       Brasil   superior total   total            total   
#>  7  2006 BR        BR       Brasil   superior total   total            total   
#>  8  2007 BR        BR       Brasil   superior total   total            total   
#>  9  2008 BR        BR       Brasil   superior total   total            total   
#> 10  2000 BR        BR       Brasil   superior total   total            total   
#> # ℹ 103 more rows
#> # ℹ 8 more variables: dim_race <chr>, age_group <chr>, indicator <chr>,
#> #   value <dbl>, unit <chr>, source <chr>, source_note <chr>, is_derived <lgl>
```
