…
## Value

A tibble following the canonical schema in `inst/dict/schema.yaml`.
Columns: `year`, `geo_level`, `geo_code`, `geo_name`, `dim_race`,
`dim_sex`, `age_group`, `indicator`, `value`, `unit`, `source`,
`source_note`. The `level` and `network` columns are omitted (not
applicable to population-level attainment averages).

## Examples

``` r
# National series, all years
get_schooling()
#> # A tibble: 91 × 12
#>     year geo_level geo_code geo_name dim_race dim_sex age_group indicator  value
#>    <int> <chr>     <chr>    <chr>    <chr>    <chr>   <chr>     <chr>      <dbl>
#>  1  1925 BR        BR       Brasil   total    total   NA        mean_year…  1.13
#>  2  1926 BR        BR       Brasil   total    total   NA        mean_year…  1.15
#>  3  1927 BR        BR       Brasil   total    total   NA        mean_year…  1.16
#>  4  1928 BR        BR       Brasil   total    total   NA        mean_year…  1.18
#>  5  1929 BR        BR       Brasil   total    total   NA        mean_year…  1.2 
#>  6  1930 BR        BR       Brasil   total    total   NA        mean_year…  1.2 
#>  7  1931 BR        BR       Brasil   total    total   NA        mean_year…  1.21
#>  8  1932 BR        BR       Brasil   total    total   NA        mean_year…  1.23
#>  9  1933 BR        BR       Brasil   total    total   NA        mean_year…  1.24
#> 10  1934 BR        BR       Brasil   total    total   NA        mean_year…  1.26
#> # ℹ 81 more rows
#> # ℹ 3 more variables: unit <chr>, source <chr>, source_note <chr>

# By race, 1960-2015
get_schooling(dimension = "race", year = c(1960, 2015))
#> # A tibble: 224 × 12
#>     year geo_level geo_code geo_name dim_race dim_sex age_group indicator  value
#>    <int> <chr>     <chr>    <chr>    <chr>    <chr>   <chr>     <chr>      <dbl>
#>  1  1960 BR        BR       Brasil   asian    total   NA        mean_year…  3.52
#>  2  1961 BR        BR       Brasil   asian    total   NA        mean_year…  3.87
#>  3  1962 BR        BR       Brasil   asian    total   NA        mean_year…  4.19
#>  4  1963 BR        BR       Brasil   asian    total   NA        mean_year…  4.3 
#>  5  1964 BR        BR       Brasil   asian    total   NA        mean_year…  4.54
#>  6  1965 BR        BR       Brasil   asian    total   NA        mean_year…  4.81
#>  7  1966 BR        BR       Brasil   asian    total   NA        mean_year…  5.02
#>  8  1967 BR        BR       Brasil   asian    total   NA        mean_year…  5.23
#>  9  1968 BR        BR       Brasil   asian    total   NA        mean_year…  5.36
#> 10  1969 BR        BR       Brasil   asian    total   NA        mean_year…  5.55
#> # ℹ 214 more rows
#> # ℹ 3 more variables: unit <chr>, source <chr>, source_note <chr>
…
